module gitlab.bcowtech.de/bcow-go/host

go 1.14

require (
	github.com/niemeyer/pretty v0.0.0-20200227124842-a10e7caefd8e // indirect
	gitlab.bcowtech.de/bcow-go/config v1.4.2
	go.uber.org/fx v1.13.1
	go.uber.org/multierr v1.6.0 // indirect
	golang.org/x/lint v0.0.0-20200302205851-738671d3881b // indirect
	golang.org/x/tools v0.0.0-20201005185003-576e169c3de7 // indirect
	gopkg.in/check.v1 v1.0.0-20200902074654-038fdea0a05b // indirect
)
